^C:\Users\Shinya\Desktop\BaseCross-master\SimplSample013\DxShared\Shaders\PSPNTStatic.hlsl
^C:\Users\Shinya\Desktop\BaseCross-master\SimplSample013\DxShared\Shaders\VSPNTStatic.hlsl
C:\Users\Shinya\Desktop\BaseCross-master\SimplSample013\media\Shaders\PSPNTStatic.cso
C:\Users\Shinya\Desktop\BaseCross-master\SimplSample013\media\Shaders\VSPNTStatic.cso
^C:\Users\Shinya\Desktop\BaseCross-master\SimplSample013\DxShared\Shaders\PSPNTStatic.hlsl
^C:\Users\Shinya\Desktop\BaseCross-master\SimplSample013\DxShared\Shaders\VSPNTStatic.hlsl
C:\Users\Shinya\Desktop\BaseCross-master\SimplSample013\media\Shaders\PSPNTStatic.cso
C:\Users\Shinya\Desktop\BaseCross-master\SimplSample013\media\Shaders\VSPNTStatic.cso
